%YAML 1.1
%TAG !u! tag:unity3d.com,2011:
--- !u!29 &1
OcclusionCullingSettings:
  m_ObjectHideFlags: 0
  serializedVersion: 2
  m_OcclusionBakeSettings:
    smallestOccluder: 5
    smallestHole: 0.25
    backfaceThreshold: 100
  m_SceneGUID: 00000000000000000000000000000000
  m_OcclusionCullingData: {fileID: 0}
--- !u!104 &2
RenderSettings:
  m_ObjectHideFlags: 0
  serializedVersion: 8
  m_Fog: 0
  m_FogColor: {r: 0.5, g: 0.5, b: 0.5, a: 1}
  m_FogMode: 3
  m_FogDensity: 0.01
  m_LinearFogStart: 0
  m_LinearFogEnd: 300
  m_AmbientSkyColor: {r: 0.212, g: 0.227, b: 0.259, a: 1}
  m_AmbientEquatorColor: {r: 0.114, g: 0.125, b: 0.133, a: 1}
  m_AmbientGroundColor: {r: 0.047, g: 0.043, b: 0.035, a: 1}
  m_AmbientIntensity: 1
  m_AmbientMode: 0
  m_SubtractiveShadowColor: {r: 0.42, g: 0.478, b: 0.627, a: 1}
  m_SkyboxMaterial: {fileID: 10304, guid: 0000000000000000f000000000000000, type: 0}
  m_HaloStrength: 0.5
  m_FlareStrength: 1
  m_FlareFadeSpeed: 3
  m_HaloTexture: {fileID: 0}
  m_SpotCookie: {fileID: 10001, guid: 0000000000000000e000000000000000, type: 0}
  m_DefaultReflectionMode: 0
  m_DefaultReflectionResolution: 128
  m_ReflectionBounces: 1
  m_ReflectionIntensity: 1
  m_CustomReflection: {fileID: 0}
  m_Sun: {fileID: 0}
  m_IndirectSpecularColor: {r: 0, g: 0, b: 0, a: 1}
--- !u!157 &3
LightmapSettings:
  m_ObjectHideFlags: 0
  serializedVersion: 11
  m_GIWorkflowMode: 0
  m_GISettings:
    serializedVersion: 2
    m_BounceScale: 1
    m_IndirectOutputScale: 1
    m_AlbedoBoost: 1
    m_TemporalCoherenceThreshold: 1
    m_EnvironmentLightingMode: 0
    m_EnableBakedLightmaps: 1
    m_EnableRealtimeLightmaps: 1
  m_LightmapEditorSettings:
    serializedVersion: 9
    m_Resolution: 2
    m_BakeResolution: 40
    m_TextureWidth: 1024
    m_TextureHeight: 1024
    m_AO: 0
    m_AOMaxDistance: 1
    m_CompAOExponent: 1
    m_CompAOExponentDirect: 0
    m_Padding: 2
    m_LightmapParameters: {fileID: 0}
    m_LightmapsBakeMode: 1
    m_TextureCompression: 1
    m_FinalGather: 0
    m_FinalGatherFiltering: 1
    m_FinalGatherRayCount: 256
    m_ReflectionCompression: 2
    m_MixedBakeMode: 1
    m_BakeBackend: 0
    m_PVRSampling: 1
    m_PVRDirectSampleCount: 32
    m_PVRSampleCount: 500
    m_PVRBounces: 2
    m_PVRFilterTypeDirect: 0
    m_PVRFilterTypeIndirect: 0
    m_PVRFilterTypeAO: 0
    m_PVRFilteringMode: 1
    m_PVRCulling: 1
    m_PVRFilteringGaussRadiusDirect: 1
    m_PVRFilteringGaussRadiusIndirect: 5
    m_PVRFilteringGaussRadiusAO: 2
    m_PVRFilteringAtrousPositionSigmaDirect: 0.5
    m_PVRFilteringAtrousPositionSigmaIndirect: 2
    m_PVRFilteringAtrousPositionSigmaAO: 1
    m_ShowResolutionOverlay: 1
  m_LightingDataAsset: {fileID: 0}
  m_UseShadowmask: 1
--- !u!196 &4
NavMeshSettings:
  serializedVersion: 2
  m_ObjectHideFlags: 0
  m_BuildSettings:
    serializedVersion: 2
    agentTypeID: 0
    agentRadius: 0.5
    agentHeight: 2
    agentSlope: 45
    agentClimb: 0.4
    ledgeDropHeight: 0
    maxJumpAcrossDistance: 0
    minRegionArea: 2
    manualCellSize: 0
    cellSize: 0.16666667
    manualTileSize: 0
    tileSize: 256
    accuratePlacement: 0
    debug:
      m_Flags: 0
  m_NavMeshData: {fileID: 0}
--- !u!1 &160452006
GameObject:
  m_ObjectHideFlags: 0
  m_PrefabParentObject: {fileID: 1274333943885516, guid: c0c356ca5fe9b1443b4b8759ed02eb2f,
    type: 2}
  m_PrefabInternal: {fileID: 642977592}
  serializedVersion: 5
  m_Component:
  - component: {fileID: 160452007}
  m_Layer: 0
  m_Name: LightningEnd
  m_TagString: Untagged
  m_Icon: {fileID: 0}
  m_NavMeshLayer: 0
  m_StaticEditorFlags: 0
  m_IsActive: 1
--- !u!4 &160452007
Transform:
  m_ObjectHideFlags: 0
  m_PrefabParentObject: {fileID: 4655653354755552, guid: c0c356ca5fe9b1443b4b8759ed02eb2f,
    type: 2}
  m_PrefabInternal: {fileID: 642977592}
  m_GameObject: {fileID: 160452006}
  m_LocalRotation: {x: 0, y: 0, z: 0, w: 1}
  m_LocalPosition: {x: 1, y: 1, z: 0}
  m_LocalScale: {x: 1, y: 1, z: 1}
  m_Children: []
  m_Father: {fileID: 1714888854}
  m_RootOrder: 1
  m_LocalEulerAnglesHint: {x: 0, y: 0, z: 0}
--- !u!1 &162184750
GameObject:
  m_ObjectHideFlags: 0
  m_PrefabParentObject: {fileID: 1520764546740086, guid: c0c356ca5fe9b1443b4b8759ed02eb2f,
    type: 2}
  m_PrefabInternal: {fileID: 642977592}
  serializedVersion: 5
  m_Component:
  - component: {fileID: 162184751}
  m_Layer: 0
  m_Name: LightningStart
  m_TagString: Untagged
  m_Icon: {fileID: 0}
  m_NavMeshLayer: 0
  m_StaticEditorFlags: 0
  m_IsActive: 1
--- !u!4 &162184751
Transform:
  m_ObjectHideFlags: 0
  m_PrefabParentObject: {fileID: 4676513241289062, guid: c0c356ca5fe9b1443b4b8759ed02eb2f,
    type: 2}
  m_PrefabInternal: {fileID: 642977592}
  m_GameObject: {fileID: 162184750}
  m_LocalRotation: {x: 0, y: 0, z: 0, w: 1}
  m_LocalPosition: {x: -1, y: -1, z: 0}
  m_LocalScale: {x: 1, y: 1, z: 1}
  m_Children: []
  m_Father: {fileID: 1714888854}
  m_RootOrder: 0
  m_LocalEulerAnglesHint: {x: 0, y: 0, z: 0}
--- !u!1 &385171023
GameObject:
  m_ObjectHideFlags: 0
  m_PrefabParentObject: {fileID: 1476646920768152, guid: 9bcfdd98d29605342a31a197383939a1,
    type: 2}
  m_PrefabInternal: {fileID: 636186515}
  serializedVersion: 5
  m_Component:
  - component: {fileID: 385171024}
  m_Layer: 0
  m_Name: LightningEnd
  m_TagString: Untagged
  m_Icon: {fileID: 0}
  m_NavMeshLayer: 0
  m_StaticEditorFlags: 0
  m_IsActive: 1
--- !u!4 &385171024
Transform:
  m_ObjectHideFlags: 0
  m_PrefabParentObject: {fileID: 4334832695643908, guid: 9bcfdd98d29605342a31a197383939a1,
    type: 2}
  m_PrefabInternal: {fileID: 636186515}
  m_GameObject: {fileID: 385171023}
  m_LocalRotation: {x: -0, y: -0, z: -0, w: 1}
  m_LocalPosition: {x: 75, y: 50, z: 0}
  m_LocalScale: {x: 1, y: 1, z: 1}
  m_Children: []
  m_Father: {fileID: 1234797674}
  m_RootOrder: 1
  m_LocalEulerAnglesHint: {x: 0, y: 0, z: 0}
--- !u!1 &486784074
GameObject:
  m_ObjectHideFlags: 0
  m_PrefabParentObject: {fileID: 1455327184583208, guid: 9bcfdd98d29605342a31a197383939a1,
    type: 2}
  m_PrefabInternal: {fileID: 636186515}
  serializedVersion: 5
  m_Component:
  - component: {fileID: 486784075}
  m_Layer: 0
  m_Name: LightningStart
  m_TagString: Untagged
  m_Icon: {fileID: 0}
  m_NavMeshLayer: 0
  m_StaticEditorFlags: 0
  m_IsActive: 1
--- !u!4 &486784075
Transform:
  m_ObjectHideFlags: 0
  m_PrefabParentObject: {fileID: 4806497844075720, guid: 9bcfdd98d29605342a31a197383939a1,
    type: 2}
  m_PrefabInternal: {fileID: 636186515}
  m_GameObject: {fileID: 486784074}
  m_LocalRotation: {x: -0, y: -0, z: -0, w: 1}
  m_LocalPosition: {x: -75, y: -50, z: 0}
  m_LocalScale: {x: 1, y: 1, z: 1}
  m_Children: []
  m_Father: {fileID: 1234797674}
  m_RootOrder: 0
  m_LocalEulerAnglesHint: {x: 0, y: 0, z: 0}
--- !u!1001 &636186515
Prefab:
  m_ObjectHideFlags: 0
  serializedVersion: 2
  m_Modification:
    m_TransformParent: {fileID: 0}
    m_Modifications:
    - target: {fileID: 4872186953277310, guid: 9bcfdd98d29605342a31a197383939a1, type: 2}
      propertyPath: m_LocalPosition.x
      value: 0
      objectReference: {fileID: 0}
    - target: {fileID: 4872186953277310, guid: 9bcfdd98d29605342a31a197383939a1, type: 2}
      propertyPath: m_LocalPosition.y
      value: 0
      objectReference: {fileID: 0}
    - target: {fileID: 4872186953277310, guid: 9bcfdd98d29605342a31a197383939a1, type: 2}
      propertyPath: m_LocalPosition.z
      value: 0
      objectReference: {fileID: 0}
    - target: {fileID: 4872186953277310, guid: 9bcfdd98d29605342a31a197383939a1, type: 2}
      propertyPath: m_LocalRotation.x
      value: 0
      objectReference: {fileID: 0}
    - target: {fileID: 4872186953277310, guid: 9bcfdd98d29605342a31a197383939a1, type: 2}
      propertyPath: m_LocalRotation.y
      value: 0
      objectReference: {fileID: 0}
    - target: {fileID: 4872186953277310, guid: 9bcfdd98d29605342a31a197383939a1, type: 2}
      propertyPath: m_LocalRotation.z
      value: 0
      objectReference: {fileID: 0}
    - target: {fileID: 4872186953277310, guid: 9bcfdd98d29605342a31a197383939a1, type: 2}
      propertyPath: m_LocalRotation.w
      value: 1
      objectReference: {fileID: 0}
    - target: {fileID: 4872186953277310, guid: 9bcfdd98d29605342a31a197383939a1, type: 2}
      propertyPath: m_RootOrder
      value: 1
      objectReference: {fileID: 0}
    - target: {fileID: 114483483659948670, guid: 9bcfdd98d29605342a31a197383939a1,
        type: 2}
      propertyPath: Camera
      value: 
      objectReference: {fileID: 951355477}
    m_RemovedComponents: []
  m_ParentPrefab: {fileID: 100100000, guid: 9bcfdd98d29605342a31a197383939a1, type: 2}
  m_RootGameObject: {fileID: 1234797672}
  m_IsPrefabParent: 0
--- !u!1001 &642977592
Prefab:
  m_ObjectHideFlags: 0
  serializedVersion: 2
  m_Modification:
    m_TransformParent: {fileID: 0}
    m_Modifications:
    - target: {fileID: 460870, guid: c0c356ca5fe9b1443b4b8759ed02eb2f, type: 2}
      propertyPath: m_LocalPosition.x
      value: 0
      objectReference: {fileID: 0}
    - target: {fileID: 460870, guid: c0c356ca5fe9b1443b4b8759ed02eb2f, type: 2}
      propertyPath: m_LocalPosition.y
      value: 0
      objectReference: {fileID: 0}
    - target: {fileID: 460870, guid: c0c356ca5fe9b1443b4b8759ed02eb2f, type: 2}
      propertyPath: m_LocalPosition.z
      value: 0
      objectReference: {fileID: 0}
    - target: {fileID: 460870, guid: c0c356ca5fe9b1443b4b8759ed02eb2f, type: 2}
      propertyPath: m_LocalRotation.x
      value: 0
      objectReference: {fileID: 0}
    - target: {fileID: 460870, guid: c0c356ca5fe9b1443b4b8759ed02eb2f, type: 2}
      propertyPath: m_LocalRotation.y
      value: 0
      objectReference: {fileID: 0}
    - target: {fileID: 460870, guid: c0c356ca5fe9b1443b4b8759ed02eb2f, type: 2}
      propertyPath: m_LocalRotation.z
      value: 0
      objectReference: {fileID: 0}
    - target: {fileID: 460870, guid: c0c356ca5fe9b1443b4b8759ed02eb2f, type: 2}
      propertyPath: m_LocalRotation.w
      value: 1
      objectReference: {fileID: 0}
    - target: {fileID: 460870, guid: c0c356ca5fe9b1443b4b8759ed02eb2f, type: 2}
      propertyPath: m_RootOrder
      value: 2
      objectReference: {fileID: 0}
    m_RemovedComponents: []
  m_ParentPrefab: {fileID: 100100000, guid: c0c356ca5fe9b1443b4b8759ed02eb2f, type: 2}
  m_RootGameObject: {fileID: 1714888852}
  m_IsPrefabParent: 0
--- !u!1 &951355473
GameObject:
  m_ObjectHideFlags: 0
  m_PrefabParentObject: {fileID: 0}
  m_PrefabInternal: {fileID: 0}
  serializedVersion: 5
  m_Component:
  - component: {fileID: 951355478}
  - component: {fileID: 951355477}
  - component: {fileID: 951355476}
  - component: {fileID: 951355475}
  - component: {fileID: 951355474}
  - component: {fileID: 951355479}
  m_Layer: 0
  m_Name: Main Camera
  m_TagString: MainCamera
  m_Icon: {fileID: 0}
  m_NavMeshLayer: 0
  m_StaticEditorFlags: 0
  m_IsActive: 1
--- !u!81 &951355474
AudioListener:
  m_ObjectHideFlags: 0
  m_PrefabParentObject: {fileID: 0}
  m_PrefabInternal: {fileID: 0}
  m_GameObject: {fileID: 951355473}
  m_Enabled: 1
--- !u!124 &951355475
Behaviour:
  m_ObjectHideFlags: 0
  m_PrefabParentObject: {fileID: 0}
  m_PrefabInternal: {fileID: 0}
  m_GameObject: {fileID: 951355473}
  m_Enabled: 1
--- !u!92 &951355476
Behaviour:
  m_ObjectHideFlags: 0
  m_PrefabParentObject: {fileID: 0}
  m_PrefabInternal: {fileID: 0}
  m_GameObject: {fileID: 951355473}
  m_Enabled: 1
--- !u!20 &951355477
Camera:
  m_ObjectHideFlags: 0
  m_PrefabParentObject: {fileID: 0}
  m_PrefabInternal: {fileID: 0}
  m_GameObject: {fileID: 951355473}
  m_Enabled: 1
  serializedVersion: 2
  m_ClearFlags: 2
  m_BackGroundColor: {r: 0, g: 0, b: 0, a: 1}
  m_NormalizedViewPortRect:
    serializedVersion: 2
    x: 0
    y: 0
    width: 1
    height: 1
  near clip plane: 0.3
  far clip plane: 1000
  field of view: 60
  orthographic: 0
  orthographic size: 5
  m_Depth: -1
  m_CullingMask:
    serializedVersion: 2
    m_Bits: 4294967295
  m_RenderingPath: 3
  m_TargetTexture: {fileID: 0}
  m_TargetDisplay: 0
  m_TargetEye: 3
  m_HDR: 1
  m_AllowMSAA: 1
  m_AllowDynamicResolution: 0
  m_ForceIntoRT: 0
  m_OcclusionCulling: 1
  m_StereoConvergence: 10
  m_StereoSeparation: 0.022
--- !u!4 &951355478
Transform:
  m_ObjectHideFlags: 0
  m_PrefabParentObject: {fileID: 0}
  m_PrefabInternal: {fileID: 0}
  m_GameObject: {fileID: 951355473}
  m_LocalRotation: {x: 0, y: 0, z: 0, w: 1}
  m_LocalPosition: {x: 0, y: 1, z: -100}
  m_LocalScale: {x: 1, y: 1, z: 1}
  m_Children: []
  m_Father: {fileID: 0}
  m_RootOrder: 0
  m_LocalEulerAnglesHint: {x: 0, y: 0, z: 0}
--- !u!114 &951355479
MonoBehaviour:
  m_ObjectHideFlags: 0
  m_PrefabParentObject: {fileID: 0}
  m_PrefabInternal: {fileID: 0}
  m_GameObject: {fileID: 951355473}
  m_Enabled: 1
  m_EditorHideFlags: 0
  m_Script: {fileID: 11500000, guid: 8b451e2dfd7d7bc47a2cec872d8024b3, type: 3}
  m_Name: 
  m_EditorClassIdentifier: 
--- !u!1 &1234797672
GameObject:
  m_ObjectHideFlags: 0
  m_PrefabParentObject: {fileID: 1600819035976254, guid: 9bcfdd98d29605342a31a197383939a1,
    type: 2}
  m_PrefabInternal: {fileID: 636186515}
  serializedVersion: 5
  m_Component:
  - component: {fileID: 1234797674}
  - component: {fileID: 1234797673}
  m_Layer: 0
  m_Name: LightningBoltPrefabHDR
  m_TagString: Untagged
  m_Icon: {fileID: 0}
  m_NavMeshLayer: 0
  m_StaticEditorFlags: 0
  m_IsActive: 1
--- !u!114 &1234797673
MonoBehaviour:
  m_ObjectHideFlags: 0
  m_PrefabParentObject: {fileID: 114483483659948670, guid: 9bcfdd98d29605342a31a197383939a1,
    type: 2}
  m_PrefabInternal: {fileID: 636186515}
  m_GameObject: {fileID: 1234797672}
  m_Enabled: 1
  m_EditorHideFlags: 0
  m_Script: {fileID: 11500000, guid: 73e36b9ad63e5de4391fbd5982a475c1, type: 3}
  m_Name: 
  m_EditorClassIdentifier: 
  Camera: {fileID: 951355477}
  CameraMode: 0
  UseWorldSpace: 1
  CompensateForParentTransform: 0
  QualitySetting: 0
  MultiThreaded: 0
  SortLayerName: 
  SortOrderInLayer: 0
  SoftParticlesFactor: 3
  RenderQueue: -1
  LightningMaterialMesh: {fileID: 2100000, guid: c6b8576004384974191b466f0bdef64b,
    type: 2}
  LightningMaterialMeshNoGlow: {fileID: 2100000, guid: db76dde8469c5834887c024ae9f43289,
    type: 2}
  LightningTexture: {fileID: 2800000, guid: ab1af2b17371b684bb0f864fcb33367f, type: 3}
  LightningGlowTexture: {fileID: 2800000, guid: cab73e4c670527a4aae0af0c436a4350,
    type: 3}
  LightningOriginParticleSystem: {fileID: 0}
  LightningDestinationParticleSystem: {fileID: 0}
  LightningTintColor: {r: 0.5731238, g: 0.49264705, b: 1, a: 1}
  GlowTintColor: {r: 0.5735294, g: 0.62091506, b: 1, a: 1}
  SourceBlendMode: 5
  DestinationBlendMode: 1
  JitterMultiplier: 1
  Turbulence: 2
  TurbulenceVelocity: {x: 2, y: 2, z: 0}
  IntervalRange:
    Minimum: 0.02
    Maximum: 0.04
  CountRange:
    Minimum: 1
    Maximum: 4
  CountProbabilityModifier: 0.25
  DelayRange:
    Minimum: 0
    Maximum: 0
  DurationRange:
    Minimum: 0.1
    Maximum: 0.3
  TrunkWidthRange:
    Minimum: 0.3
    Maximum: 0.6
  LifeTime: 0
  Generations: 6
  ChaosFactor: 0.15
  ChaosFactorForks: 0.095
  Intensity: 4
  GlowIntensity: 2
  GlowWidthMultiplier: 8
  FadePercent: 0.4
  FadeInMultiplier: 1
  FadeFullyLitMultiplier: 1
  FadeOutMultiplier: 1
  GrowthMultiplier: 0.3
  EndWidthMultiplier: 0.5
  Forkedness: 0.1
  ForkLengthMultiplier: 0.6
  ForkLengthVariance: 0.2
  ForkEndWidthMultiplier: 1
  LightParameters:
    RenderMode: 0
    LightColor: {r: 1, g: 1, b: 1, a: 1}
    LightPercent: 0.001
    LightShadowPercent: 0
    LightIntensity: 0.5
    BounceIntensity: 0
    ShadowStrength: 1
    ShadowBias: 0.05
    ShadowNormalBias: 0.4
    LightRange: 0
    CullingMask:
      serializedVersion: 2
      m_Bits: 4294967295
    OrthographicOffset: 0
    FadeInMultiplier: 1
    FadeFullyLitMultiplier: 1
    FadeOutMultiplier: 1
  MaximumLightsPerBatch: 8
  ManualMode: 0
  AutomaticModeSeconds: 0
  CustomTransformHandler:
    m_PersistentCalls:
      m_Calls: []
    m_TypeName: DigitalRuby.ThunderAndLightning.LightningCustomTransformDelegate,
      Assembly-CSharp, Version=0.0.0.0, Culture=neutral, PublicKeyToken=null
  Source: {fileID: 486784074}
  Destination: {fileID: 385171023}
  StartVariance: {x: 1, y: 1, z: 1}
  EndVariance: {x: 5, y: 5, z: 5}
--- !u!4 &1234797674
Transform:
  m_ObjectHideFlags: 0
  m_PrefabParentObject: {fileID: 4872186953277310, guid: 9bcfdd98d29605342a31a197383939a1,
    type: 2}
  m_PrefabInternal: {fileID: 636186515}
  m_GameObject: {fileID: 1234797672}
  m_LocalRotation: {x: 0, y: 0, z: 0, w: 1}
  m_LocalPosition: {x: 0, y: 0, z: 0}
  m_LocalScale: {x: 1, y: 1, z: 1}
  m_Children:
  - {fileID: 486784075}
  - {fileID: 385171024}
  m_Father: {fileID: 0}
  m_RootOrder: 1
  m_LocalEulerAnglesHint: {x: 0, y: 0, z: 0}
--- !u!1 &1714888852
GameObject:
  m_ObjectHideFlags: 0
  m_PrefabParentObject: {fileID: 198392, guid: c0c356ca5fe9b1443b4b8759ed02eb2f, type: 2}
  m_PrefabInternal: {fileID: 642977592}
  serializedVersion: 5
  m_Component:
  - component: {fileID: 1714888854}
  - component: {fileID: 1714888853}
  m_Layer: 0
  m_Name: LightningBoltPrefab
  m_TagString: Untagged
  m_Icon: {fileID: 0}
  m_NavMeshLayer: 0
  m_StaticEditorFlags: 0
  m_IsActive: 1
--- !u!114 &1714888853
MonoBehaviour:
  m_ObjectHideFlags: 0
  m_PrefabParentObject: {fileID: 11423590, guid: c0c356ca5fe9b1443b4b8759ed02eb2f,
    type: 2}
  m_PrefabInternal: {fileID: 642977592}
  m_GameObject: {fileID: 1714888852}
  m_Enabled: 1
  m_EditorHideFlags: 0
  m_Script: {fileID: 11500000, guid: 73e36b9ad63e5de4391fbd5982a475c1, type: 3}
  m_Name: 
  m_EditorClassIdentifier: 
  Camera: {fileID: 0}
  CameraMode: 0
  UseWorldSpace: 1
  CompensateForParentTransform: 0
  QualitySetting: 0
  MultiThreaded: 0
  SortLayerName: 
  SortOrderInLayer: 0
  SoftParticlesFactor: 3
  RenderQueue: -1
  LightningMaterialMesh: {fileID: 2100000, guid: c6b8576004384974191b466f0bdef64b,
    type: 2}
  LightningMaterialMeshNoGlow: {fileID: 2100000, guid: db76dde8469c5834887c024ae9f43289,
    type: 2}
  LightningTexture: {fileID: 2800000, guid: 51e598d31382bd740958e33ab6c64a66, type: 3}
  LightningGlowTexture: {fileID: 2800000, guid: cab73e4c670527a4aae0af0c436a4350,
    type: 3}
  LightningOriginParticleSystem: {fileID: 0}
  LightningDestinationParticleSystem: {fileID: 0}
  LightningTintColor: {r: 1, g: 1, b: 1, a: 1}
  GlowTintColor: {r: 0, g: 0.111111164, b: 1, a: 1}
  SourceBlendMode: 5
  DestinationBlendMode: 1
  JitterMultiplier: 0.1
  Turbulence: 0.05
  TurbulenceVelocity: {x: 0, y: 0, z: 0}
  IntervalRange:
    Minimum: 0.05
    Maximum: 0.1
  CountRange:
    Minimum: 1
    Maximum: 3
  CountProbabilityModifier: 1
  DelayRange:
    Minimum: 0
    Maximum: 0
  DurationRange:
    Minimum: 0.08
    Maximum: 0.15
  TrunkWidthRange:
    Minimum: 0.075
    Maximum: 0.15
  LifeTime: 0
  Generations: 6
  ChaosFactor: 0.15
  ChaosFactorForks: 0.095
  Intensity: 1
  GlowIntensity: 0.226
  GlowWidthMultiplier: 5.5
  FadePercent: 0.3
  FadeInMultiplier: 1
  FadeFullyLitMultiplier: 1
  FadeOutMultiplier: 1
  GrowthMultiplier: 0
  EndWidthMultiplier: 0.8
  Forkedness: 0
  ForkLengthMultiplier: 0.6
  ForkLengthVariance: 0.2
  ForkEndWidthMultiplier: 1
  LightParameters:
    RenderMode: 0
    LightColor: {r: 1, g: 1, b: 1, a: 1}
    LightPercent: 0.001
    LightShadowPercent: 0
    LightIntensity: 0.5
    BounceIntensity: 0
    ShadowStrength: 1
    ShadowBias: 0.05
    ShadowNormalBias: 0.4
    LightRange: 0
    CullingMask:
      serializedVersion: 2
      m_Bits: 4294967295
    OrthographicOffset: 0
    FadeInMultiplier: 1
    FadeFullyLitMultiplier: 1
    FadeOutMultiplier: 1
  MaximumLightsPerBatch: 8
  ManualMode: 0
  AutomaticModeSeconds: 0
  CustomTransformHandler:
    m_PersistentCalls:
      m_Calls: []
    m_TypeName: DigitalRuby.ThunderAndLightning.LightningCustomTransformDelegate,
      Assembly-CSharp, Version=0.0.0.0, Culture=neutral, PublicKeyToken=null
  Source: {fileID: 162184750}
  Destination: {fileID: 160452006}
  StartVariance: {x: 0, y: 0, z: 0}
  EndVariance: {x: 0, y: 0, z: 0}
--- !u!4 &1714888854
Transform:
  m_ObjectHideFlags: 0
  m_PrefabParentObject: {fileID: 460870, guid: c0c356ca5fe9b1443b4b8759ed02eb2f, type: 2}
  m_PrefabInternal: {fileID: 642977592}
  m_GameObject: {fileID: 1714888852}
  m_LocalRotation: {x: 0, y: 0, z: 0, w: 1}
  m_LocalPosition: {x: 0, y: 0, z: 0}
  m_LocalScale: {x: 1, y: 1, z: 1}
  m_Children:
  - {fileID: 162184751}
  - {fileID: 160452007}
  m_Father: {fileID: 0}
  m_RootOrder: 2
  m_LocalEulerAnglesHint: {x: 0, y: 0, z: 0}
